{
  "project_info": {
    "project_number": "148656969631",
    "firebase_url": "https://loja-c4479.firebaseio.com",
    "project_id": "loja-c4479",
    "storage_bucket": "loja-c4479.appspot.com"
  },
  "client": [
    {
      "client_info": {
        "mobilesdk_app_id": "1:148656969631:android:dac68d97fd1568c5e04faa",
        "android_client_info": {
          "package_name": "com.example.magicloja"
        }
      },
      "oauth_client": [
        {
          "client_id": "148656969631-lnt6nre7qacgm8q93m8fgqf38qre5qsp.apps.googleusercontent.com",
          "client_type": 1,
          "android_info": {
            "package_name": "com.example.magicloja",
            "certificate_hash": "3936aab847b3d0ce120aa2a35410f8e14fe253f6"
          }
        },
        {
          "client_id": "148656969631-r31l5b8b5l46q5lufqheeeggdqjid88b.apps.googleusercontent.com",
          "client_type": 3
        }
      ],
      "api_key": [
        {
          "current_key": "AIzaSyCS5HU8hhukMNvvGEYG_i5K0RCsZd2eZeM"
        }
      ],
      "services": {
        "appinvite_service": {
          "other_platform_oauth_client": [
            {
              "client_id": "148656969631-r31l5b8b5l46q5lufqheeeggdqjid88b.apps.googleusercontent.com",
              "client_type": 3
            }
          ]
        }
      }
    }
  ],
  "configuration_version": "1"
}